{
    "KPackageStructure": "Plasma/Applet",
    "KPlugin": {
        "Authors": [
            {
                "Email": "plasma-devel@kde.org",
                "Name": "The Plasma Team",
                "Name[ar]": "فريق بلازما",
                "Name[ast]": "L'equipu de Plasma",
                "Name[az]": "Plasma komandası",
                "Name[be]": "Каманда Plasma",
                "Name[bg]": "Екипът на Plasma",
                "Name[ca@valencia]": "L'equip de Plasma",
                "Name[ca]": "L'equip del Plasma",
                "Name[cs]": "Team Plasma",
                "Name[de]": "Das Plasma-Team",
                "Name[en_GB]": "The Plasma Team",
                "Name[eo]": "La Plasma-Teamo",
                "Name[es]": "El equipo de Plasma",
                "Name[et]": "Plasma meeskond",
                "Name[eu]": "Plasma taldea",
                "Name[fi]": "Plasma-työryhmä",
                "Name[fr]": "L'équipe de Plasma",
                "Name[gl]": "O equipo de Plasma",
                "Name[he]": "צוות פלזמה",
                "Name[hi]": "प्लाज़्मा दल",
                "Name[hu]": "A Plasma fejlesztői",
                "Name[ia]": "Le equipa de Plasma",
                "Name[id]": "Tim Plasma",
                "Name[is]": "Plasma-þróunarhópurinn",
                "Name[it]": "La squadra di Plasma",
                "Name[ja]": "Plasma チーム",
                "Name[ka]": "Plasma-ის გუნდი",
                "Name[ko]": "Plasma 팀",
                "Name[lt]": "Plasma komanda",
                "Name[nl]": "Het team van Plasma",
                "Name[nn]": "Utviklingslaget for Plasma",
                "Name[pa]": "ਪਲਾਜ਼ਮਾ ਟੀਮ",
                "Name[pl]": "Zespół Plazmy",
                "Name[pt]": "A Equipa do Plasma",
                "Name[pt_BR]": "Temas do Plasma",
                "Name[ro]": "Echipa Plasma",
                "Name[ru]": "Команда разработчиков Plasma",
                "Name[sa]": "प्लाज्मा दलम्",
                "Name[sk]": "Plasma Tím",
                "Name[sl]": "Ekipa Plasme",
                "Name[sv]": "Plasma-gruppen",
                "Name[ta]": "பிளாஸ்மா குழு",
                "Name[tr]": "Plasma Takımı",
                "Name[uk]": "Команда розробників Плазми",
                "Name[vi]": "Đội Plasma",
                "Name[x-test]": "xxThe Plasma Teamxx",
                "Name[zh_CN]": "Plasma 开发团队",
                "Name[zh_TW]": "Plasma 團隊"
            }
        ],
        "BugReportUrl": "https://bugs.kde.org/enter_bug.cgi?product=plasmashell&component=Panel%20Spacer",
        "Category": "System Information",
        "Description": "Reserve empty spaces within the panel.",
        "Description[ar]": "يحجز مساحات فارغة في اللوحة.",
        "Description[az]": "Paneldə boş yeri tutun.",
        "Description[be]": "Запаўненне пустога месца на панэлі.",
        "Description[bg]": "Запазване на празни полети в панела.",
        "Description[ca@valencia]": "Reserva espais buits en el quadro.",
        "Description[ca]": "Reserva espais buits en el plafó.",
        "Description[cs]": "Rezervovat prázdné místo v panelu.",
        "Description[da]": "Reservér tom plads i panelet.",
        "Description[de]": "Freien Platz in der Kontrollleiste reservieren.",
        "Description[en_GB]": "Reserve empty spaces within the panel.",
        "Description[eo]": "Rezervi malplenan spacon en la panelo.",
        "Description[es]": "Reservar espacios vacíos en el panel.",
        "Description[et]": "Tühja ruumi reserveerimine paneelil.",
        "Description[eu]": "Gorde panel barruan leku hutsak.",
        "Description[fi]": "Varaa paneeliin tyhjää tilaa.",
        "Description[fr]": "Réserver des espaces vides dans le panneau.",
        "Description[gl]": "Reserva espazos baleiros no panel.",
        "Description[he]": "שמירת מקומות פנויים בלוח.",
        "Description[hi]": "पैनल के भीतर रिक्त स्थान आरक्षित करें।",
        "Description[hu]": "Üres helyet választ le egy panelen belül.",
        "Description[ia]": "Reserva spatios vacue intra le pannello.",
        "Description[id]": "Cadangan ruang kosong di dalam panel.",
        "Description[is]": "Taka frá auð svæði innan skjáborðsstikunnar.",
        "Description[it]": "Lascia spazi vuoti nel pannello.",
        "Description[ja]": "パネルの中に空のスペースを確保します。",
        "Description[ka]": "პანელში ცარიელი ადგილების დატოვება.",
        "Description[ko]": "패널의 빈 공간을 채웁니다.",
        "Description[lt]": "Rezervuoti skydelyje tuščią vietą.",
        "Description[nl]": "Reserveer lege ruimte in het paneel.",
        "Description[nn]": "Reserver tomme plassar i panelet.",
        "Description[pa]": "ਪੈਨਲ ਵਿੱਚ ਖਾਲੀ ਥਾਂ ਬਦਲੋ।",
        "Description[pl]": "Rezerwuje wolną przestrzeń na panelu.",
        "Description[pt]": "Reserva espaços vazios dentro do painel.",
        "Description[pt_BR]": "Reserva espaços vazios no painel.",
        "Description[ro]": "Rezervează spații goale în cadrul panoului.",
        "Description[ru]": "Занимает свободное место на панели",
        "Description[sa]": "फलकस्य अन्तः रिक्तस्थानानि आरक्षन्तु ।.",
        "Description[sk]": "Rezervuje prázdne miesto v paneli.",
        "Description[sl]": "Rezerviraj prazne prostorčke na plošči.",
        "Description[sv]": "Reservera tomt utrymme inne i panelen.",
        "Description[ta]": "பலகையில் காலியான இடைவெளிகளை இடும்",
        "Description[tr]": "Panelde boş alanlar ayırın.",
        "Description[uk]": "Створює прогалини на панелі.",
        "Description[vi]": "Giữ các khoảng trống trong bảng.",
        "Description[x-test]": "xxReserve empty spaces within the panel.xx",
        "Description[zh_CN]": "在面板中预留空白。",
        "Description[zh_TW]": "在面板內保留空間。",
        "EnabledByDefault": true,
        "Id": "org.kde.plasma.panelspacer",
        "License": "GPL-2.0+",
        "Name": "Panel Spacer",
        "Name[ar]": "مُباعِد لوحة",
        "Name[az]": "Panel Ayırıcısı",
        "Name[be]": "Панэльны падзяляльнік",
        "Name[bg]": "Разделител за панела",
        "Name[bs]": "Panelska razmaknica",
        "Name[ca@valencia]": "Espaiador del quadro",
        "Name[ca]": "Espaiador del plafó",
        "Name[cs]": "Mezera v panelu",
        "Name[da]": "Panel-afstandsstykke",
        "Name[de]": "Abstandhalter",
        "Name[el]": "Κενό πίνακα",
        "Name[en_GB]": "Panel Spacer",
        "Name[eo]": "Spacigilo de Panelo",
        "Name[es]": "Espaciador",
        "Name[et]": "Paneeliruumi korraldaja",
        "Name[eu]": "Paneleko bereizlea",
        "Name[fi]": "Paneelivälilevy",
        "Name[fr]": "Espaceur de tableau de bord",
        "Name[fy]": "Paniel spaasje",
        "Name[ga]": "Scarthóir Painéil",
        "Name[gl]": "Espazador do panel",
        "Name[he]": "מפריד בלוח",
        "Name[hi]": "पैनल परिवर्तक",
        "Name[hr]": "Razmak na traci",
        "Name[hsb]": "Mjezota mjez panelemi",
        "Name[hu]": "Panelelválasztó",
        "Name[ia]": "Spatiator de pannello",
        "Name[id]": "Panel Spacer",
        "Name[is]": "Bil á skjáborðsstiku",
        "Name[it]": "Spaziatore del pannello",
        "Name[ja]": "パネルのスペーサー",
        "Name[ka]": "პანელის დამშორებელი",
        "Name[kk]": "Панель бос орын бөлгіші",
        "Name[km]": "ចន្លោះ​បន្ទះ",
        "Name[kn]": "ಫಲಕ ಸ್ಪೇಸರ್",
        "Name[ko]": "패널 공백",
        "Name[lt]": "Skydelio skirtukas",
        "Name[lv]": "Paneļa atdalītājs",
        "Name[mai]": "पटल स्पेसर",
        "Name[mk]": "Разграничувач на панели",
        "Name[ml]": "പാളിയില്‍ ഒഴിഞ്ഞസ്ഥലമിടാന്‍",
        "Name[mr]": "पटल स्पेसर",
        "Name[nb]": "Avstandsholder for panel",
        "Name[nds]": "Paneel-Platzmaker",
        "Name[nl]": "Paneelscheider",
        "Name[nn]": "Panel­mellomrom",
        "Name[pa]": "ਪੈਨਲ ਸਪੇਸਰ",
        "Name[pl]": "Odstęp w panelu",
        "Name[pt]": "Espaço do Painel",
        "Name[pt_BR]": "Espaçador do painel",
        "Name[ro]": "Spațiator panou",
        "Name[ru]": "Разделитель",
        "Name[sa]": "फलक अन्तरिक्षकर्ता",
        "Name[si]": "පැනල ඉඩතැබීම",
        "Name[sk]": "Medzera v paneli",
        "Name[sl]": "Praznina za na pult",
        "Name[sr@ijekavian]": "панелска размакница",
        "Name[sr@ijekavianlatin]": "panelska razmaknica",
        "Name[sr@latin]": "panelska razmaknica",
        "Name[sr]": "панелска размакница",
        "Name[sv]": "Panelavskiljare",
        "Name[ta]": "பலகைக்கான இடைவெளி",
        "Name[th]": "ตัวสร้างพื้นที่ว่าง",
        "Name[tr]": "Panel Ayırıcısı",
        "Name[ug]": "تاختا ئارىلىقى",
        "Name[uk]": "Розпірка панелі",
        "Name[vi]": "Khoảng trống bảng",
        "Name[wa]": "Separateu e scriftôr",
        "Name[x-test]": "xxPanel Spacerxx",
        "Name[zh_CN]": "面板间隙",
        "Name[zh_TW]": "面板間隔器",
        "Website": "https://www.kde.org/plasma-desktop"
    },
    "NoDisplay": true,
    "X-Plasma-API-Minimum-Version": "6.0"
}
